{
  "directory": "arquitetura",
  "cases": {
    "001": {
      "title": "O TERRITÓRIO NÃO É UM MAPA",
      "author": "JÚLIA PAULINO DA COSTA LEONE",
      "__video": "https://player.vimeo.com/external/559993420.sd.mp4?s=0611789945fc77a2f7786066789f927e23bc09a2&amp;profile_id=165",
      "video": "559993420",
      "link": "",
      "gallery": "JULIAPAULINODACOSTALEONE"
    },
    "002": {
      "title": "ESCOLA PÚBLICA MUNICIPAL: UMA PROPOSTA PARA O BAIRRO VILA OLÍMPIA",
      "author": "JULYA FREIRE FIGUEIREDO",
      "__video": "https://player.vimeo.com/external/559989114.sd.mp4?s=aa271d3f0ca580d134ddf704fcb9c0b48399e285&amp;profile_id=165",
      "video": "559989114",
      "link": "",
      "gallery": "JULYAFREIREFIGUEIREDO"
    },
    "003": {
      "title": "DA REQUALIFICAÇÃO URBANA À MORADIA DIGNA",
      "author": "LARISSA SOARES LUNA",
      "__video": "https://player.vimeo.com/external/559993300.sd.mp4?s=7a6ed859408b69ae25940034046fb174490d7654&amp;profile_id=165",
      "video": "559993300",
      "link": "https://issuu.com/lunaarquitetura/docs/da_requalifica_o_urbana_moradia_digna",
      "gallery": "LARISSASOARESLUNA"
    },
    "004": {
      "title": "COLAB 067 – MORADIA COLABORATIVA PARA A CIDADE UNIVERSITÁRIA DE DOURADOS, MS",
      "author": "LARISSA TOMAZ LORENSINI",
      "__video": "https://player.vimeo.com/external/560189896.sd.mp4?s=77943b274851af064f628f0dc48cd43b2ade0f20&amp;profile_id=165",
      "video": "560189896",
      "link": "",
      "gallery": "LARISSATOMAZLORENSINI"
    },
    "005": {
      "title": "CONEXÕES CULTURAIS: [RE]SIGNIFICANDO O PATRIMÔNIO INDUSTRIAL NA MOOCA",
      "author": "MATHEUS SANTIAGO",
      "__video": "https://player.vimeo.com/external/559999747.sd.mp4?s=8368da15a1e2b9ac22adcf4018196ffbe5c9979c&amp;profile_id=165",
      "video": "559999747",
      "link": "https://issuu.com/matheussantiago43",
      "gallery": "MATHEUSSANTIAGODASILVA"
    },
    "006": {
      "title": "VILA NELSON CRUZ: UMA METODOLOGIA DE CONFORTO",
      "author": "NICOLAS VICTURI FAGLIONI",
      "__video": "https://player.vimeo.com/external/559999346.sd.mp4?s=ef92e01106a122457cc0d0833c9663aad927d79c&amp;profile_id=165",
      "video": "559999346",
      "link": "https://issuu.com/nicvf/docs/tfg_-_pr_banca",
      "gallery": "NICOLASVICTURIFAGLIONI"
    },
    "007": {
      "title": "REQUALIFICAÇÃO DO AUTÓDROMO INTERNACIONAL NELSON PIQUET",
      "author": "PAMELA VASCONCELLOS MAYRINK",
      "__video": "https://player.vimeo.com/external/559999144.sd.mp4?s=f17f00eedc3104ab89cc1487f060870859c9da3e&amp;profile_id=165",
      "video": "559999144",
      "link": "",
      "gallery": "PAMELAVASCONCELLOSMAYRINK"
    },
    "008": {
      "title": "PARQUE LINEAR RIO VERDE",
      "author": "PAULA ZANGARI CARLINI BNEEGAS",
      "__video": "https://player.vimeo.com/external/560004358.sd.mp4?s=e4a9b6667ee4f459af8c8bccf4d53c63eb0d63ba&amp;profile_id=165",
      "video": "560004358",
      "link": "",
      "gallery": "PAULAZCBENEGAS"
    },
    "009": {
      "title": "CAMINHABILIDADE: REQUALIFICAÇÃO URBANA NA VILA ANDRADE",
      "author": "SARAH APARECIDA DE SOUZA",
      "__video": "https://player.vimeo.com/external/560004275.sd.mp4?s=c1f82adf596f79e3478f3bd778d2008eb03c11f2&amp;profile_id=165",
      "video": "560004275",
      "link": "",
      "gallery": "SARAHAPARECIDADESOUZA"
    },
    "010": {
      "title": "MEMÓRIA E PAISAGEM: PARQUE DA ALDEIA DE CARAPICUÍBA/SP",
      "author": "YAGO VIANA",
      "__video": "https://player.vimeo.com/external/560004117.sd.mp4?s=b3b0d25448f4eb14f724d7bd434a345ea871b1a7&amp;profile_id=165",
      "video": "560004117",
      "link": "https://issuu.com/yagoviana/docs/creative_collectibles_yago_viana",
      "gallery": "YAGOVIANADACRUZDOSSANTOS"
    }
  }
}