{
  "directory": "moda",
  "cases": {
    "001": {
      "title": "ÍON: A CONTRIBUIÇÃO DA TECNOLOGIA PARA O DESENVOLVIMENTO DE DESIGN DE SUPERFICIE.",
      "author": "NATASHA INGRID GONÇALVES DE LIMA",
      "__video": "https://player.vimeo.com/external/560152755.sd.mp4?s=b704ce4c882daa292ca50102f526b247a8e1a3b2&amp;profile_id=165",
      "video": "560152755",
      "link": "https://linktr.ee/natashalima",
      "gallery": "NatashaLima"
    }
  }
}