{
  "directory": "votorantim",
  "cases": {
    "001": {
      "title": "DMS2: O JOGO VIRTUAL SOBRE O UNIVERSO DA MODA",
      "author": "AMÁLIA DEGASPARI, ANA ISABELA, GABRIELA MENEZES E TALINE AZZI",
      "__video": "https://player.vimeo.com/external/560979370.sd.mp4?s=8d9e30e4b34cadfebd88d2d392e536a2a44c975e&amp;profile_id=165",
      "video": "560979370",
      "link": "",
      "gallery": "Aluno1"
    }
  }
}